P3100009.trees-sky.tile.jpg
2003-10-18.psychotile.2.mirror.jpg
2003-10-18.psychotile.2.mirror2.jpg
2003-10-18.psychotile.2.mirror3.jpg
2003-10-18.tile.2.jpg
2003-10-18.tile.4.jpg
vbz.tile1b.jpg
vbz.tile1b1.jpg
vbz.tile1b2.jpg
vbz.tile1b3.jpg
vbz.tile1b6.jpg
vbz.tile1b7.jpg
vbz.tile1b8.jpg
vbz.tile1c.jpg
vbz.tile1d.jpg